{
	"info": {
		"_postman_id": "4c882d52-9627-47aa-9d5c-50d233b3197c",
		"name": "Auth api",
		"description": "<h2>laravel.loc/api/v1/</h2>\r\n<br>\r\n<table  align=\"left\" cellpadding=\"2\" cellspacing=\"0\" >\r\n  <tbody>\r\n   <tr> \r\n       <td><b> url  </b></td><td><b> method  </b></td><td><b> description </b></td>\r\n   </tr>\r\n   <tr> \r\n       <td>user</td><td>post</td><td>-creat user</td>\r\n   </tr>\r\n   <tr> \r\n       <td>user</td><td>get </td><td>-get user</td>\r\n   </tr>   \r\n   <tr> \r\n       <td>user</td><td>put</td><td>-update user</td>\r\n   </tr>   \r\n   <tr> \r\n       <td>user/password</td><td>put</td><td>-update password</td>\r\n   </tr>   \r\n   <tr> \r\n       <td>user/password/restore</td><td>post</td><td>-create restore password</td>\r\n   </tr> \r\n   <tr> \r\n       <td>user/password/restore</td><td>put</td><td>-restore password</td>\r\n   </tr>\r\n   <tr> \r\n       <td>session</td><td>post</td><td>-creat session</td>\r\n   </tr>\r\n   <tr> \r\n       <td>session</td><td>get</td><td>-get session</td>\r\n   </tr>\r\n   <tr> \r\n       <td>session</td><td>delete </td><td>-delete session</td>\r\n   </tr> \r\n </table>",
		"schema": "https://schema.getpostman.com/json/collection/v2.1.0/collection.json"
	},
	"item": [
		{
			"_postman_id": "ef74aa46-09bf-46fe-813e-4ef3db60e74c",
			"name": "Creat user",
			"request": {
				"auth": {
					"type": "noauth"
				},
				"method": "POST",
				"header": [
					{
						"key": "Content-Type",
						"value": "application/x-www-form-urlencoded",
						"disabled": true
					}
				],
				"body": {
					"mode": "formdata",
					"formdata": [
						{
							"key": "first_name",
							"value": "Valentyn",
							"type": "text"
						},
						{
							"key": "last_name",
							"value": "Naniev",
							"type": "text"
						},
						{
							"key": "email",
							"value": "valik@gmail.com",
							"type": "text"
						},
						{
							"key": "password",
							"value": "12345678",
							"type": "text"
						},
						{
							"key": "city",
							"value": "Odesa",
							"type": "text"
						}
					]
				},
				"url": {
					"raw": "http://laravel.loc/api/v1/user",
					"protocol": "http",
					"host": [
						"laravel",
						"loc"
					],
					"path": [
						"api",
						"v1",
						"user"
					]
				}
			},
			"response": []
		},
		{
			"_postman_id": "b5a5285b-aba1-4518-acba-1053f7cec82a",
			"name": "Get user",
			"request": {
				"method": "GET",
				"header": [
					{
						"key": "x-access-token",
						"value": "$2y$10$PeYGkvBERqqjFyCeOjdv0OkhhLyprrJ7iiiRF9bRJI6qNhlu8cnl2"
					}
				],
				"body": {},
				"url": {
					"raw": "laravel.loc/api/v1/user",
					"host": [
						"laravel",
						"loc"
					],
					"path": [
						"api",
						"v1",
						"user"
					]
				},
				"description": "laravel.loc/api/v1/user"
			},
			"response": []
		},
		{
			"_postman_id": "b153cd66-16e4-40ed-8dbc-20ccff2572e5",
			"name": "Update user",
			"request": {
				"auth": {
					"type": "noauth"
				},
				"method": "PUT",
				"header": [
					{
						"key": "x-access-token",
						"value": "$2y$10$PeYGkvBERqqjFyCeOjdv0OkhhLyprrJ7iiiRF9bRJI6qNhlu8cnl2"
					},
					{
						"key": "Content-Type",
						"value": "application/x-www-form-urlencoded"
					}
				],
				"body": {
					"mode": "urlencoded",
					"urlencoded": [
						{
							"key": "first_name",
							"value": "Saimon",
							"type": "text"
						},
						{
							"key": "last_name",
							"value": "Bod",
							"type": "text"
						},
						{
							"key": "email",
							"value": "valik@gmail.com",
							"type": "text",
							"disabled": true
						},
						{
							"key": "city",
							"value": "Kyiv",
							"type": "text"
						}
					]
				},
				"url": {
					"raw": "laravel.loc/api/v1/user",
					"host": [
						"laravel",
						"loc"
					],
					"path": [
						"api",
						"v1",
						"user"
					]
				},
				"description": "laravel.loc/api/v1/user"
			},
			"response": []
		},
		{
			"_postman_id": "5af0042b-a1f9-4b51-8c01-f31c7ef1243a",
			"name": "Creat session",
			"request": {
				"method": "POST",
				"header": [],
				"body": {
					"mode": "formdata",
					"formdata": [
						{
							"key": "email",
							"value": "valik@gmail.com",
							"type": "text"
						},
						{
							"key": "password",
							"value": "12345678",
							"type": "text"
						}
					]
				},
				"url": {
					"raw": "laravel.loc/api/v1/session",
					"host": [
						"laravel",
						"loc"
					],
					"path": [
						"api",
						"v1",
						"session"
					]
				},
				"description": "Creat session"
			},
			"response": []
		},
		{
			"_postman_id": "0033f271-bcc4-49f4-ae73-cb9acabca785",
			"name": "Get session",
			"request": {
				"auth": {
					"type": "noauth"
				},
				"method": "GET",
				"header": [
					{
						"key": "x-access-token",
						"value": "$2y$10$fA60Pb33bCCzOJS1SVwY3e.rvN8vY80PVsauhjKaWDKHbr9GL2DtC"
					},
					{
						"key": "",
						"value": "",
						"disabled": true
					}
				],
				"body": {},
				"url": {
					"raw": "laravel.loc/api/v1/session",
					"host": [
						"laravel",
						"loc"
					],
					"path": [
						"api",
						"v1",
						"session"
					]
				},
				"description": "get session"
			},
			"response": []
		},
		{
			"_postman_id": "d49b3e58-ee78-4a85-b63c-84ef9f38396d",
			"name": "Delete session",
			"request": {
				"auth": {
					"type": "noauth"
				},
				"method": "DELETE",
				"header": [
					{
						"key": "x-access-token",
						"value": "$2y$10$TyacrXCA//9shN2HUufgIuMUhUOmqOULmTDP.clZ8wVGX7IGnFNO2"
					}
				],
				"body": {},
				"url": {
					"raw": "laravel.loc/api/v1/session",
					"host": [
						"laravel",
						"loc"
					],
					"path": [
						"api",
						"v1",
						"session"
					]
				},
				"description": "delete session"
			},
			"response": []
		},
		{
			"_postman_id": "62b17eef-f9c8-4cb6-9e7a-1ee1a41b70c7",
			"name": "update password",
			"request": {
				"method": "PUT",
				"header": [
					{
						"key": "x-access-token",
						"value": "$2y$10$LzdihJGtCfUE8f0HmSwpEeMKtuJSa0Xb0XVmomUztb.0YDDw/w/P2"
					},
					{
						"key": "Content-Type",
						"value": "application/x-www-form-urlencoded"
					}
				],
				"body": {
					"mode": "urlencoded",
					"urlencoded": [
						{
							"key": "old_password",
							"value": "12345678",
							"type": "text"
						},
						{
							"key": "new_password",
							"value": "87654321",
							"type": "text"
						}
					]
				},
				"url": {
					"raw": "laravel.loc/api/v1/user/password",
					"host": [
						"laravel",
						"loc"
					],
					"path": [
						"api",
						"v1",
						"user",
						"password"
					]
				}
			},
			"response": []
		},
		{
			"_postman_id": "3b35888a-91fd-423e-95f9-be40e95164fe",
			"name": "Request for password restore",
			"request": {
				"method": "POST",
				"header": [],
				"body": {
					"mode": "formdata",
					"formdata": [
						{
							"key": "email",
							"value": "valik@gmail.com",
							"type": "text"
						}
					]
				},
				"url": {
					"raw": "laravel.loc/api/v1/user/password/restore",
					"host": [
						"laravel",
						"loc"
					],
					"path": [
						"api",
						"v1",
						"user",
						"password",
						"restore"
					]
				}
			},
			"response": []
		},
		{
			"_postman_id": "edfccc96-ff3a-4ce0-9654-3865d5cb1c20",
			"name": "Restore password",
			"request": {
				"method": "PUT",
				"header": [
					{
						"key": "Content-Type",
						"value": "application/x-www-form-urlencoded"
					}
				],
				"body": {
					"mode": "urlencoded",
					"urlencoded": [
						{
							"key": "email",
							"value": "valik@gmail.com",
							"type": "text"
						},
						{
							"key": "password_token",
							"value": "$2y$10$w9yewh2Mu0nLAbRtYLtR0uG/DHhAjvSUrs4wedwcsScwbDDumgFLi",
							"type": "text"
						},
						{
							"key": "new_password",
							"value": "12345678",
							"type": "text"
						}
					]
				},
				"url": {
					"raw": "laravel.loc/api/v1/user/password/restore",
					"host": [
						"laravel",
						"loc"
					],
					"path": [
						"api",
						"v1",
						"user",
						"password",
						"restore"
					]
				}
			},
			"response": []
		}
	]
}